waveform.csv

Revision:           0
Type:               interpolation
Start:              0
Points:             192000
Count:              1
XDispRange:         6.00000E-06
XDispOrg:           -2.058999942780E-06
XInc:               7.812500E-12
XOrg:               -2.058999263037E-06
XUnits:             Second
YDispRange:         1.60000E+00
YDispOrg:           0.0E+00
YInc:               2.5927573234702E-05
YOrg:               8.29682343510468E-04
YUnits:             Volt
YReference:         1
Frame:              UXR0104A:MY62410106
Date:               17 DEC 2025
Time:               12:48:41.100
Max Bandwidth:      21000000000
Min Bandwidth:      0
Data:
-5.000000000E-07,1.8778724E-01
-4.999921875E-07,2.0366240E-01
-4.999843750E-07,3.0181826E-01
-4.999765625E-07,-8.6895812E-02
-4.999687500E-07,1.8596115E-01
-4.999609375E-07,-1.6974754E-01
-4.999531250E-07,2.4915032E-02
-4.999453125E-07,-7.5208336E-02
-4.999375000E-07,5.6964375E-03
-4.999296875E-07,-2.2110871E-02
-4.999218750E-07,4.9478402E-02
-4.999140625E-07,-5.2499186E-02
-4.999062500E-07,9.0610855E-03
-4.998984375E-07,-3.9976561E-02
-4.998906250E-07,-3.9970952E-02
-4.998828125E-07,2.8291398E-02
-4.998750000E-07,5.0583483E-02
-4.998671875E-07,2.6663689E-02
-4.998593750E-07,1.7852795E-01
-4.998515625E-07,-6.5078919E-02
-4.998437500E-07,1.1454806E-01
-4.998359375E-07,-1.1130111E-01
-4.998281250E-07,-8.9845737E-02
-4.998203125E-07,-4.8797121E-02
-4.998125000E-07,-1.3520360E-01
-4.998046875E-07,1.4512746E-02
-4.997968750E-07,3.9850759E-02
-4.997890625E-07,-1.2512333E-02
-4.997812500E-07,1.2269158E-01
-4.997734375E-07,-6.7218127E-02
-4.997656250E-07,-9.0294711E-02
-4.997578125E-07,-5.8082469E-02
-4.997500000E-07,-3.6241153E-01
-4.997421875E-07,-6.2257967E-03
-4.997343750E-07,-3.7782963E-01
-4.997265625E-07,1.8728292E-02
-4.997187500E-07,-1.9619984E-01
-4.997109375E-07,1.0824286E-02
-4.997031250E-07,-7.7582511E-02
-4.996953125E-07,-4.1687966E-05
-4.996875000E-07,-3.7509512E-02
-4.996796875E-07,-1.1458201E-02
-4.996718750E-07,8.9749266E-02
-4.996640625E-07,-1.8486830E-02
-4.996562500E-07,2.4193388E-01
-4.996484375E-07,6.2404877E-03
-4.996406250E-07,1.6169115E-01
-4.996328125E-07,4.3488509E-02
-4.996250000E-07,-1.3567706E-01
-4.996171875E-07,1.9398403E-02
-4.996093750E-07,-2.8505198E-01
-4.996015625E-07,-7.0080221E-02
-4.995937500E-07,-8.8599856E-02
-4.995859375E-07,-1.1679295E-01
-4.995781250E-07,1.9015583E-01
-4.995703125E-07,-5.9978204E-02
-4.995625000E-07,2.3323511E-01
-4.995546875E-07,8.4317995E-03
-4.995468750E-07,1.1447714E-01
-4.995390625E-07,-2.8398419E-03
-4.995312500E-07,9.7781341E-02
-4.995234375E-07,-2.6659246E-02
-4.995156250E-07,1.8763338E-01
-4.995078125E-07,3.4791812E-02
-4.995000000E-07,1.8005664E-01
-4.994921875E-07,1.1818352E-01
-4.994843750E-07,5.4847133E-02
-4.994765625E-07,1.0678898E-01
-4.994687500E-07,-7.7109408E-04
-4.994609375E-07,5.9431013E-02
-4.994531250E-07,5.3773519E-02
-4.994453125E-07,1.1914850E-01
-4.994375000E-07,3.5069752E-02
-4.994296875E-07,2.2236941E-01
-4.994218750E-07,-1.2501814E-01
-4.994140625E-07,1.4897164E-01
-4.994062500E-07,-2.2663894E-01
-4.993984375E-07,-9.8026966E-02
-4.993906250E-07,-1.1285915E-01
-4.993828125E-07,-2.2160469E-01
-4.993750000E-07,7.5065951E-02
-4.993671875E-07,-5.4246937E-02
-4.993593750E-07,1.1145410E-01
-4.993515625E-07,1.8255612E-01
-4.993437500E-07,2.2732850E-03
-4.993359375E-07,2.1262856E-01
-4.993281250E-07,-8.2682539E-02
-4.993203125E-07,8.9117111E-02
-4.993125000E-07,-8.3638486E-02
-4.993046875E-07,1.7427404E-02
-4.992968750E-07,-7.6475085E-02
-4.992890625E-07,-2.6004975E-02
-4.992812500E-07,-8.7355266E-02
-4.992734375E-07,-1.9404886E-01
-4.992656250E-07,-5.9350132E-02
-4.992578125E-07,-3.8916934E-01
-4.992500000E-07,9.6784540E-03
-4.992421875E-07,-3.3816898E-01
-4.992343750E-07,4.5390482E-02
-4.992265625E-07,-5.8690459E-02
-4.992187500E-07,2.3340525E-02
-4.992109375E-07,9.4968149E-02
-4.992031250E-07,-1.3215027E-03
-4.991953125E-07,-4.3367021E-02
-4.991875000E-07,-5.9285581E-04
-4.991796875E-07,-1.9562392E-01
-4.991718750E-07,-5.0374562E-03
-4.991640625E-07,-8.6134459E-02
-4.991562500E-07,-2.0198584E-02
-4.991484375E-07,1.3250310E-01
-4.991406250E-07,-1.2854361E-02
-4.991328125E-07,1.5378681E-01
-4.991250000E-07,9.2268402E-03
-4.991171875E-07,4.5514938E-03
-4.991093750E-07,1.8619460E-03
-4.991015625E-07,-5.4218040E-02
-4.990937500E-07,-2.4644459E-02
-4.990859375E-07,1.6742464E-02
-4.990781250E-07,-2.2787641E-02
-4.990703125E-07,2.5648017E-02
-4.990625000E-07,-1.7769901E-02
-4.990546875E-07,-4.1418137E-02
-4.990468750E-07,-7.3482758E-02
-4.990390625E-07,3.7482332E-02
-4.990312500E-07,-1.3463451E-01
-4.990234375E-07,2.9847200E-01
-4.990156250E-07,-5.8045058E-02
-4.990078125E-07,4.3883988E-01
-4.990000000E-07,1.4568620E-01
-4.989921875E-07,2.4784312E-01
-4.989843750E-07,2.6521975E-01
-4.989765625E-07,-6.4248523E-02
-4.989687500E-07,1.7828917E-01
-4.989609375E-07,-1.7308346E-01
-4.989531250E-07,3.2744451E-02
-4.989453125E-07,-8.1709306E-02
-4.989375000E-07,8.1689193E-03
-4.989296875E-07,-2.1493105E-02
-4.989218750E-07,4.8882977E-02
-4.989140625E-07,-5.4728087E-02
-4.989062500E-07,1.4547538E-02
-4.988984375E-07,-4.6309592E-02
-4.988906250E-07,-3.6686682E-02
-4.988828125E-07,3.1016657E-02
-4.988750000E-07,4.1920058E-02
-4.988671875E-07,3.7623183E-02
-4.988593750E-07,1.7104850E-01
-4.988515625E-07,-6.6229158E-02
-4.988437500E-07,1.2616860E-01
-4.988359375E-07,-1.3074858E-01
-4.988281250E-07,-6.8663722E-02
-4.988203125E-07,-6.5000594E-02
-4.988125000E-07,-1.2804513E-01
-4.988046875E-07,1.5737194E-02
-4.987968750E-07,3.5456652E-02
-4.987890625E-07,-1.2304919E-02
-4.987812500E-07,1.3266295E-01
-4.987734375E-07,-8.9068807E-02
-4.987656250E-07,-6.0106881E-02
-4.987578125E-07,-8.9273448E-02
-4.987500000E-07,-3.3823202E-01
-4.987421875E-07,-1.7950193E-02
-4.987343750E-07,-3.7956860E-01
-4.987265625E-07,3.0802224E-02
-4.987187500E-07,-2.1347089E-01
-4.987109375E-07,2.8868961E-02
-4.987031250E-07,-9.4553124E-02
-4.986953125E-07,1.6665248E-02
-4.986875000E-07,-5.5818819E-02
-4.986796875E-07,9.1197989E-03
-4.986718750E-07,6.8948034E-02
-4.986640625E-07,-1.9965713E-03
-4.986562500E-07,2.3478767E-01
-4.986484375E-07,1.2920823E-03
-4.986406250E-07,1.7711938E-01
-4.986328125E-07,2.3721653E-02
-4.986250000E-07,-1.2018484E-01
-4.986171875E-07,1.5828271E-02
-4.986093750E-07,-2.9683952E-01
-4.986015625E-07,-4.5219419E-02
-4.985937500E-07,-1.1950120E-01
-4.985859375E-07,-8.8621594E-02
-4.985781250E-07,1.7158770E-01
-4.985703125E-07,-5.3420675E-02
-4.985625000E-07,2.3626481E-01
-4.985546875E-07,1.1932561E-03
-4.985468750E-07,1.2065498E-01
-4.985390625E-07,-5.4629031E-03
-4.985312500E-07,9.8094204E-02
-4.985234375E-07,-2.8528531E-02
-4.985156250E-07,1.9506538E-01
-4.985078125E-07,2.0100172E-02
-4.985000000E-07,2.0031274E-01
-4.984921875E-07,9.6603169E-02
-4.984843750E-07,7.3248156E-02
-4.984765625E-07,9.3895968E-02
-4.984687500E-07,7.6828612E-03
-4.984609375E-07,5.1663964E-02
-4.984531250E-07,6.4965879E-02
-4.984453125E-07,1.0276400E-01
-4.984375000E-07,5.4469253E-02
-4.984296875E-07,2.0560315E-01
-4.984218750E-07,-1.1755078E-01
-4.984140625E-07,1.5518905E-01
-4.984062500E-07,-2.4613732E-01
-4.983984375E-07,-7.0857566E-02
-4.983906250E-07,-1.3887097E-01
-4.983828125E-07,-2.0526635E-01
-4.983750000E-07,7.3149363E-02
-4.983671875E-07,-6.5940194E-02
-4.983593750E-07,1.3103224E-01
-4.983515625E-07,1.6304285E-01
-4.983437500E-07,1.4924640E-02
-4.983359375E-07,2.1002713E-01
-4.983281250E-07,-8.9239755E-02
-4.983203125E-07,1.0138692E-01
-4.983125000E-07,-9.8137224E-02
-4.983046875E-07,3.2691303E-02
-4.982968750E-07,-9.3537181E-02
-4.982890625E-07,-4.9179726E-03
-4.982812500E-07,-1.1361761E-01
-4.982734375E-07,-1.6439813E-01
-4.982656250E-07,-8.7397636E-02
-4.982578125E-07,-3.6926002E-01
-4.982500000E-07,3.1208283E-03
-4.982421875E-07,-3.4622293E-01
-4.982343750E-07,6.4369807E-02
-4.982265625E-07,-8.1245582E-02
-4.982187500E-07,4.1518937E-02
-4.982109375E-07,8.6296949E-02
-4.982031250E-07,-2.3145017E-03
-4.981953125E-07,-3.7361334E-02
-4.981875000E-07,-4.5541313E-03
-4.981796875E-07,-1.9969851E-01
-4.981718750E-07,9.1388241E-03
-4.981640625E-07,-1.0766088E-01
-4.981562500E-07,2.5529518E-03
-4.981484375E-07,1.1503125E-01
-4.981406250E-07,-4.5243323E-03
-4.981328125E-07,1.5424509E-01
-4.981250000E-07,3.9797582E-03
-4.981171875E-07,9.2378052E-03
-4.981093750E-07,1.6905314E-03
-4.981015625E-07,-5.9374651E-02
-4.980937500E-07,-1.6373699E-02
-4.980859375E-07,8.7937458E-03
-4.980781250E-07,-1.7413412E-02
-4.980703125E-07,2.2320569E-02
-4.980625000E-07,-1.3358951E-02
-4.980546875E-07,-5.0710410E-02
-4.980468750E-07,-5.7525015E-02
-4.980390625E-07,1.7027825E-02
-4.980312500E-07,-1.1582313E-01
-4.980234375E-07,2.8928529E-01
-4.980156250E-07,-6.4916435E-02
-4.980078125E-07,4.6359333E-01
-4.980000000E-07,1.0706298E-01
-4.979921875E-07,2.9175741E-01
-4.979843750E-07,2.2591838E-01
-4.979765625E-07,-3.7047025E-02
-4.979687500E-07,1.6570799E-01
-4.979609375E-07,-1.7241397E-01
-4.979531250E-07,3.8045466E-02
-4.979453125E-07,-8.6959559E-02
-4.979375000E-07,9.9776916E-03
-4.979296875E-07,-2.0091341E-02
-4.979218750E-07,4.7067209E-02
-4.979140625E-07,-5.5506864E-02
-4.979062500E-07,1.8886556E-02
-4.978984375E-07,-5.2259567E-02
-4.978906250E-07,-3.2990887E-02
-4.978828125E-07,3.3047977E-02
-4.978750000E-07,3.3393190E-02
-4.978671875E-07,4.9735000E-02
-4.978593750E-07,1.6092938E-01
-4.978515625E-07,-6.3764144E-02
-4.978437500E-07,1.3423656E-01
-4.978359375E-07,-1.4779932E-01
-4.978281250E-07,-4.8104446E-02
-4.978203125E-07,-8.2179343E-02
-4.978125000E-07,-1.1922038E-01
-4.978046875E-07,1.5813540E-02
-4.977968750E-07,3.0774060E-02
-4.977890625E-07,-1.0214465E-02
-4.977812500E-07,1.3987414E-01
-4.977734375E-07,-1.0857637E-01
-4.977656250E-07,-3.0544028E-02
-4.977578125E-07,-1.2229665E-01
-4.977500000E-07,-3.0988720E-01
-4.977421875E-07,-3.5281647E-02
-4.977343750E-07,-3.7549172E-01
-4.977265625E-07,3.7895860E-02
-4.977187500E-07,-2.2708128E-01
-4.977109375E-07,4.4450991E-02
-4.977031250E-07,-1.0980162E-01
-4.976953125E-07,3.2005601E-02
-4.976875000E-07,-7.3108436E-02
-4.976796875E-07,2.9414948E-02
-4.976718750E-07,4.7179231E-02
-4.976640625E-07,1.6933234E-02
-4.976562500E-07,2.2411313E-01
-4.976484375E-07,-3.6737992E-05
-4.976406250E-07,1.9010999E-01
-4.976328125E-07,4.2065806E-03
-4.976250000E-07,-1.0251384E-01
-4.976171875E-07,8.3472970E-03
-4.976093750E-07,-3.0439440E-01
-4.976015625E-07,-2.3347687E-02
-4.975937500E-07,-1.4974766E-01
-4.975859375E-07,-5.8568822E-02
-4.975781250E-07,1.4929952E-01
-4.975703125E-07,-4.2519670E-02
-4.975625000E-07,2.3548039E-01
-4.975546875E-07,-3.3579482E-03
-4.975468750E-07,1.2513779E-01
-4.975390625E-07,-6.7197798E-03
-4.975312500E-07,9.6629958E-02
-4.975234375E-07,-2.7846465E-02
-4.975156250E-07,1.9939970E-01
-4.975078125E-07,8.3595686E-03
-4.975000000E-07,2.1853675E-01
-4.974921875E-07,7.5710619E-02
-4.974843750E-07,9.2155311E-02
-4.974765625E-07,7.9932555E-02
-4.974687500E-07,1.7034408E-02
-4.974609375E-07,4.3573079E-02
-4.974531250E-07,7.6110704E-02
-4.974453125E-07,8.6062042E-02
-4.974375000E-07,7.5432788E-02
-4.974296875E-07,1.8551750E-01
-4.974218750E-07,-1.0524972E-01
-4.974140625E-07,1.5607513E-01
-4.974062500E-07,-2.6123448E-01
-4.973984375E-07,-4.5918781E-02
-4.973906250E-07,-1.6532343E-01
-4.973828125E-07,-1.8629808E-01
-4.973750000E-07,6.7692048E-02
-4.973671875E-07,-7.4729137E-02
-4.973593750E-07,1.4953619E-01
-4.973515625E-07,1.4236400E-01
-4.973437500E-07,3.0552041E-02
-4.973359375E-07,2.0359282E-01
-4.973281250E-07,-9.2084775E-02
-4.973203125E-07,1.1064426E-01
-4.973125000E-07,-1.1036435E-01
-4.973046875E-07,4.6114495E-02
-4.972968750E-07,-1.0890722E-01
-4.972890625E-07,1.4705975E-02
-4.972812500E-07,-1.3917332E-01
-4.972734375E-07,-1.3395291E-01
-4.972656250E-07,-1.1827278E-01
-4.972578125E-07,-3.4456475E-01
-4.972500000E-07,-9.3699282E-03
-4.972421875E-07,-3.4850760E-01
-4.972343750E-07,7.9041643E-02
-4.972265625E-07,-1.0168902E-01
-4.972187500E-07,5.9633559E-02
-4.972109375E-07,7.6591796E-02
-4.972031250E-07,-2.4785813E-03
-4.971953125E-07,-3.0932873E-02
-4.971875000E-07,-1.0502432E-02
-4.971796875E-07,-2.0076353E-01
-4.971718750E-07,2.0390691E-02
-4.971640625E-07,-1.2747358E-01
-4.971562500E-07,2.5408879E-02
-4.971484375E-07,9.5812318E-02
-4.971406250E-07,6.3600707E-03
-4.971328125E-07,1.5240558E-01
-4.971250000E-07,-8.3661064E-06
-4.971171875E-07,1.3874525E-02
-4.971093750E-07,7.9530775E-04
-4.971015625E-07,-6.3761654E-02
-4.970937500E-07,-8.3356353E-03
-4.970859375E-07,4.1591950E-04
-4.970781250E-07,-1.1298241E-02
-4.970703125E-07,1.8480960E-02
-4.970625000E-07,-8.9748377E-03
-4.970546875E-07,-5.9669009E-02
-4.970468750E-07,-4.1425187E-02
-4.970390625E-07,-5.0454434E-03
-4.970312500E-07,-9.3220051E-02
-4.970234375E-07,2.7419402E-01
-4.970156250E-07,-6.4724060E-02
-4.970078125E-07,4.8169773E-01
-4.970000000E-07,7.3060221E-02
-4.969921875E-07,3.3410616E-01
-4.969843750E-07,1.8507683E-01
-4.969765625E-07,-6.0960191E-03
-4.969687500E-07,1.4858980E-01
-4.969609375E-07,-1.6775886E-01
-4.969531250E-07,4.0661244E-02
-4.969453125E-07,-9.0803757E-02
-4.969375000E-07,1.1069225E-02
-4.969296875E-07,-1.7947054E-02
-4.969218750E-07,4.4084799E-02
-4.969140625E-07,-5.4812499E-02
-4.969062500E-07,2.1949752E-02
-4.968984375E-07,-5.7650457E-02
-4.968906250E-07,-2.8992910E-02
-4.968828125E-07,3.4325302E-02
-4.968750000E-07,2.5255123E-02
-4.968671875E-07,6.2640849E-02
-4.968593750E-07,1.4846987E-01
-4.968515625E-07,-5.7756812E-02
-4.968437500E-07,1.3851322E-01
-4.968359375E-07,-1.6194887E-01
-4.968281250E-07,-2.8776112E-02
-4.968203125E-07,-9.9825157E-02
-4.968125000E-07,-1.0899040E-01
-4.968046875E-07,1.4739551E-02
-4.967968750E-07,2.5941498E-02
-4.967890625E-07,-6.3028038E-03
-4.967812500E-07,1.4411181E-01
-4.967734375E-07,-1.2516372E-01
-4.967656250E-07,-2.4807707E-03
-4.967578125E-07,-1.5617512E-01
-4.967500000E-07,-2.7821561E-01
-4.967421875E-07,-5.7707429E-02
-4.967343750E-07,-3.6571963E-01
-4.967265625E-07,3.9799378E-02
-4.967187500E-07,-2.3662839E-01
-4.967109375E-07,5.7109464E-02
-4.967031250E-07,-1.2287691E-01
-4.966953125E-07,4.5525523E-02
-4.966875000E-07,-8.8866887E-02
-4.966796875E-07,4.8826839E-02
-4.966718750E-07,2.5086827E-02
-4.966640625E-07,3.7742576E-02
-4.966562500E-07,2.1022610E-01
-4.966484375E-07,2.2933374E-03
-4.966406250E-07,2.0027866E-01
-4.966328125E-07,-1.4479385E-02
-4.966250000E-07,-8.3186816E-02
-4.966171875E-07,-2.8232047E-03
-4.966093750E-07,-3.0749312E-01
-4.966015625E-07,-5.1120951E-03
-4.965937500E-07,-1.7844446E-01
-4.965859375E-07,-2.7523625E-02
-4.965781250E-07,1.2395063E-01
-4.965703125E-07,-2.7597630E-02
-4.965625000E-07,2.3090504E-01
-4.965546875E-07,-5.0871631E-03
-4.965468750E-07,1.2779293E-01
-4.965390625E-07,-6.5732954E-03
-4.965312500E-07,9.3431944E-02
-4.965234375E-07,-2.4633215E-02
-4.965156250E-07,2.0050812E-01
-4.965078125E-07,-8.2688882E-05
-4.965000000E-07,2.3418953E-01
-4.964921875E-07,5.6123920E-02
-4.964843750E-07,1.1100923E-01
-4.964765625E-07,6.5311829E-02
-4.964687500E-07,2.7006892E-02
-4.964609375E-07,3.5397708E-02
-4.964531250E-07,8.6878253E-02
-4.964453125E-07,6.9536691E-02
-4.964375000E-07,9.7340178E-02
-4.964296875E-07,1.6270672E-01
-4.964218750E-07,-8.8478884E-02
-4.964140625E-07,1.5160365E-01
-4.964062500E-07,-2.7148377E-01
-4.963984375E-07,-2.3948386E-02
-4.963906250E-07,-1.9143392E-01
-4.963828125E-07,-1.6526101E-01
-4.963750000E-07,5.8855467E-02
-4.963671875E-07,-8.0353772E-02
-4.963593750E-07,1.6641850E-01
-4.963515625E-07,1.2113132E-01
-4.963437500E-07,4.8693150E-02
-4.963359375E-07,1.9351600E-01
-4.963281250E-07,-9.1133457E-02
-4.963203125E-07,1.1661532E-01
-4.963125000E-07,-1.1995814E-01
-4.963046875E-07,5.7299848E-02
-4.962968750E-07,-1.2213051E-01
-4.962890625E-07,3.2286296E-02
-4.962812500E-07,-1.6326637E-01
-4.962734375E-07,-1.0361393E-01
-4.962656250E-07,-1.5106217E-01
-4.962578125E-07,-3.1581410E-01
-4.962500000E-07,-2.7424294E-02
-4.962421875E-07,-3.4495541E-01
-4.962343750E-07,8.8971997E-02
-4.962265625E-07,-1.1941600E-01
-4.962187500E-07,7.7148479E-02
-4.962109375E-07,6.6139811E-02
-4.962031250E-07,-1.8088889E-03
-4.961953125E-07,-2.4271831E-02
-4.961875000E-07,-1.8261789E-02
-4.961796875E-07,-1.9878746E-01
-4.961718750E-07,2.8385273E-02
-4.961640625E-07,-1.4498639E-01
-4.961562500E-07,4.7693033E-02
-4.961484375E-07,7.5414880E-02
-4.961406250E-07,1.9476847E-02
-4.961328125E-07,1.4832274E-01
-4.961250000E-07,-2.6195490E-03
-4.961171875E-07,1.8324445E-02
-4.961093750E-07,-7.9723768E-04
-4.961015625E-07,-6.7249311E-02
-4.960937500E-07,-7.6803685E-04
-4.960859375E-07,-8.1431393E-03
-4.960781250E-07,-4.6230394E-03
-4.960703125E-07,1.4242779E-02
-4.960625000E-07,-4.7472572E-03
-4.960546875E-07,-6.8028921E-02
-4.960468750E-07,-2.5659571E-02
-4.960390625E-07,-2.8084443E-02
-4.960312500E-07,-6.7493959E-02
-4.960234375E-07,2.5364462E-01
-4.960156250E-07,-5.7473609E-02
-4.960078125E-07,4.9261746E-01
-4.960000000E-07,4.4683820E-02
-4.959921875E-07,3.7363654E-01
-4.959843750E-07,1.4390334E-01
-4.959765625E-07,2.7688837E-02
-4.959687500E-07,1.2744105E-01
-4.959609375E-07,-1.5925586E-01
-4.959531250E-07,4.0514406E-02
-4.959453125E-07,-9.3128187E-02
-4.959375000E-07,1.1411267E-02
-4.959296875E-07,-1.5123663E-02
-4.959218750E-07,4.0023992E-02
-4.959140625E-07,-5.2665516E-02
-4.959062500E-07,2.3646525E-02
-4.958984375E-07,-6.2322770E-02
-4.958906250E-07,-2.4811001E-02
-4.958828125E-07,3.4810835E-02
-4.958750000E-07,1.7746611E-02
-4.958671875E-07,7.5958905E-02
-4.958593750E-07,1.3403864E-01
-4.958515625E-07,-4.8384857E-02
-4.958437500E-07,1.3887209E-01
-4.958359375E-07,-1.7277864E-01
-4.958281250E-07,-1.1250552E-02
-4.958203125E-07,-1.1741600E-01
-4.958125000E-07,-9.7657855E-02
-4.958046875E-07,1.2546984E-02
-4.957968750E-07,2.1101966E-02
-4.957890625E-07,-6.8566090E-04
-4.957812500E-07,1.4525061E-01
-4.957734375E-07,-1.3834012E-01
-4.957656250E-07,2.3252730E-02
-4.957578125E-07,-1.8990656E-01
-4.957500000E-07,-2.4415422E-01
-4.957421875E-07,-8.4564112E-02
-4.957343750E-07,-3.5054142E-01
-4.957265625E-07,3.6456454E-02
-4.957187500E-07,-2.4182977E-01
-4.957109375E-07,6.6469852E-02
-4.957031250E-07,-1.3339217E-01
-4.956953125E-07,5.6825050E-02
-4.956875000E-07,-1.0262795E-01
-4.956796875E-07,6.6781203E-02
-4.956718750E-07,3.3244274E-03
-4.956640625E-07,5.9815836E-02
-4.956562500E-07,1.9353736E-01
-4.956484375E-07,8.2133778E-03
-4.956406250E-07,2.0732455E-01
-4.956328125E-07,-3.1783444E-02
-4.956250000E-07,-6.2775495E-02
-4.956171875E-07,-1.7352753E-02
-4.956093750E-07,-3.0604401E-01
-4.956015625E-07,8.9479272E-03
-4.955937500E-07,-2.0474260E-01
-4.955859375E-07,3.5955273E-03
-4.955781250E-07,9.6290958E-02
-4.955703125E-07,-9.0960327E-03
-4.955625000E-07,2.2267411E-01
-4.955546875E-07,-3.9432312E-03
-4.955468750E-07,1.2854189E-01
-4.955390625E-07,-5.0277883E-03
-4.955312500E-07,8.8594782E-02
-4.955234375E-07,-1.8983850E-02
-4.955156250E-07,1.9835783E-01
-4.955078125E-07,-4.9768408E-03
-4.955000000E-07,2.4680802E-01
-4.954921875E-07,3.8422536E-02
-4.954843750E-07,1.2925215E-01
-4.954765625E-07,5.0466351E-02
-4.954687500E-07,3.7305328E-02
-4.954609375E-07,2.7379708E-02
-4.954531250E-07,9.6950030E-02
-4.954453125E-07,5.3676841E-02
-4.954375000E-07,1.1954331E-01
-4.954296875E-07,1.3784559E-01
-4.954218750E-07,-6.7734404E-02
-4.954140625E-07,1.4190688E-01
-4.954062500E-07,-2.7658200E-01
-4.953984375E-07,-5.5963230E-03
-4.953906250E-07,-2.1643005E-01
-4.953828125E-07,-1.4277752E-01
-4.953750000E-07,4.6901055E-02
-4.953671875E-07,-8.2647705E-02
-4.953593750E-07,1.8117977E-01
-4.953515625E-07,9.9972965E-02
-4.953437500E-07,6.8811292E-02
-4.953359375E-07,1.8009476E-01
-4.953281250E-07,-8.6413920E-02
-4.953203125E-07,1.1912341E-01
-4.953125000E-07,-1.2663476E-01
-4.953046875E-07,6.5916486E-02
-4.952968750E-07,-1.3281583E-01
-4.952890625E-07,4.7302880E-02
-4.952812500E-07,-1.8518398E-01
-4.952734375E-07,-7.4278731E-02
-4.952656250E-07,-1.8479575E-01
-4.952578125E-07,-2.8385865E-01
-4.952500000E-07,-5.0508179E-02
-4.952421875E-07,-3.3567145E-01
-4.952343750E-07,9.3867064E-02
-4.952265625E-07,-1.3390208E-01
-4.952187500E-07,9.3545531E-02
-4.952109375E-07,5.5250181E-02
